<?xml version="1.0" encoding="utf-8"?>
<!-- Generator: Adobe Illustrator 16.0.0, SVG Export Plug-In . SVG Version: 6.00 Build 0)  -->
<!DOCTYPE svg PUBLIC "-//W3C//DTD SVG 1.0//EN" "http://www.w3.org/TR/2001/REC-SVG-20010904/DTD/svg10.dtd">
<svg version="1.0" id="Layer_1" xmlns="http://www.w3.org/2000/svg" xmlns:xlink="http://www.w3.org/1999/xlink" x="0px" y="0px"
	 width="412.667px" height="84.667px" viewBox="0 0 412.667 84.667" enable-background="new 0 0 412.667 84.667"
	 xml:space="preserve">
<g>
	<path fill-rule="evenodd" clip-rule="evenodd" fill="#FFFFFF" d="M45.607,15.371c-4.54,0.9-9.542,0.688-12.939,4.375
		c-0.28,0.367-0.299,0.898-0.193,1.345c0.068,0.125,0.213,0.27,0.338,0.338c0.853,0,1.404-0.726,2.149-0.958
		c2.631-0.725,4.915-2.312,7.847-2.361l0,0l0.252,0.107l0,0c-0.145,0.242-0.57,0.551-0.252,0.87c0.659,0.214,1.355-0.125,1.974-0.29
		c2.585-1.345,5.353-2.293,8.216-2.952c1.017-0.367,1.907-0.977,2.845-1.528c1.316,3.271-1.529,5.69-1.064,9.067
		c-0.087,1.19,0.261,2.864-0.715,3.755c-2.826-0.726-5.545-1.762-8.303-2.652c-0.3,0.105-0.707-0.019-0.92,0.32
		c-0.231,0.948,0.813,1.335,1.317,1.887c2.08,1.509,4.567,2.061,7.035,2.632c1.48,0.407,2.651,2.1,4.325,1.384l0,0l0.426-0.765l0,0
		c-0.04-2.022-0.851-4.103-0.106-6.058c1.471-2.206,1.955-5.67,0.765-8.148c-0.146-1.761,1.171-4.403-1.123-5.206
		c-3.755-0.087-6.455,2.719-9.687,4.074l0,0L45.607,15.371L45.607,15.371z"/>
	<path fill-rule="evenodd" clip-rule="evenodd" fill="#FFFFFF" d="M27.675,21.129c-0.678,2.225-0.871,5.264,0.978,6.986
		c1.384,0,0.319-1.674,0.706-2.506c0.416-3.928,2.526-7.625,6.068-9.832c-1.229-0.484-2.438,0.193-3.523,0.619
		C30.094,17.539,28.652,19.329,27.675,21.129L27.675,21.129L27.675,21.129z"/>
	<path fill-rule="evenodd" clip-rule="evenodd" fill="#FFFFFF" d="M42.151,21.167c-0.155,0.426,0,0.852,0.251,1.19
		c0.233,0.513,0.891,0.048,1.208,0.407c0.804-0.039,1.636-0.068,2.256-0.571c0.378-0.368,0.378-0.939,0.358-1.422
		c-0.571-0.958-1.849-0.513-2.757-0.552C43.022,20.539,42.315,20.51,42.151,21.167L42.151,21.167L42.151,21.167z"/>
	<path fill-rule="evenodd" clip-rule="evenodd" fill="#FFFFFF" d="M24.115,21.594c-4.143,5.883-7.674,12.038-7.607,19.664
		c-0.281,5.089,1.868,9.165,5.458,12.627c3.116,2.352,6.348,4.375,9.687,6.175c-0.832,0.512-1.878,0.812-2.748,1.315
		c-0.678,0.919-0.417,2.216-0.61,3.32c-0.213,0.909-0.339,2.225,0.3,2.951l0,0l0.608-0.105l0,0c2.788-2.062,5.584-4.461,8.11-6.88
		c0.319-0.475,0.426-1.132,0.3-1.723c-0.823-1.567-2.633-1.848-4.036-2.613c-3.804-1.994-7.857-3.734-10.78-7.47
		c-1.683-2.719-3.445-5.409-3.425-8.826c-0.464-5.226,0.387-10.17,3.212-14.167c0.377,0.618,0.059,1.597,0.29,2.293
		c0.261,3.532,2.148,6.484,5.1,8.729c7.433,6.29,17.167,6.919,25.538,10.944c2.632,1.346,5.477,2.488,7.432,5.139
		c0.628,1.007-0.028,2.11-0.62,2.913c-1.616,1.83-3.967,1.888-6.116,2.487c-4.46,0.397-9.299,0.464-12.057-3.358
		c-0.833-1.141-1.209-2.912-0.512-4.229c0.299-0.696,1.489-1.083,1.102-1.993c-0.193-0.319-0.62-0.512-1.015-0.358
		c-1.829,1.143-1.975,3.359-1.829,5.196c0.319,2.187,1.954,3.822,3.356,5.565c3.881,3.271,10.277,3.483,14.951,1.79
		c2.458-0.793,5.157-3,5.69-5.67c0.465-2.42-0.474-4.636-2.554-6.059c-5.264-3.754-11.129-6.145-17.322-7.693
		c-6.174-2.681-12.985-4.549-17.409-10.703c-1.693-2.67-1.374-6.792-0.464-9.725c0.048-0.426-0.213-0.803-0.552-0.978
		C24.849,20.258,24.559,21.091,24.115,21.594L24.115,21.594L24.115,21.594z"/>
	<path fill-rule="evenodd" clip-rule="evenodd" fill="#FFFFFF" d="M52.428,51.33c-0.319,0.35-0.193,0.726-0.154,1.133
		c0.406,0.465,0.793,0.978,1.422,0.764c0.387-0.173,0.871-0.368,0.978-0.812c0.106-0.465,0.068-0.978-0.358-1.268
		C53.821,50.74,52.854,50.74,52.428,51.33L52.428,51.33L52.428,51.33z"/>
</g>
<g>
	<path fill="#FFFFFF" d="M82.023,48.107c-5.042,0-7.594-3.843-7.594-11.067c0-7.471,2.859-11.13,7.655-11.13
		c4.52,0,6.087,2.583,6.917,6.703l-4.98,1.353c-0.37-2.398-0.708-3.628-1.968-3.628c-1.66,0-2.306,1.753-2.306,6.641
		c0,4.95,0.646,6.702,2.367,6.702c1.199,0,1.599-0.861,2.183-3.505l4.765,1.629C88.11,45.709,86.297,48.107,82.023,48.107z"/>
	<path fill="#FFFFFF" d="M103.785,47.769v-9.008H99.45v9.008h-5.195V26.248h5.195v8.024h4.335v-8.024h5.196v21.521H103.785z"/>
	<path fill="#FFFFFF" d="M124.962,47.769l-0.799-3.997h-4.242l-0.771,3.997h-5.287l5.565-21.521h5.287l5.535,21.521H124.962z
		 M123.179,38.884c-0.491-2.828-0.952-5.165-1.168-7.132c-0.185,1.968-0.614,4.304-1.137,7.163l-0.124,0.677h2.552L123.179,38.884z"
		/>
	<path fill="#FFFFFF" d="M144.08,47.769l-2.521-8.239h-1.383v8.239h-5.042V26.248h7.439c3.875,0,6.672,1.752,6.672,6.548
		c0,2.798-1.075,4.612-2.828,5.657l3.136,9.315H144.08z M142.204,30.336h-2.028v5.258h1.936c1.477,0,2.031-0.861,2.031-2.644
		S143.618,30.336,142.204,30.336z"/>
	<path fill="#FFFFFF" d="M154.836,47.769V26.248H160V43.28h6.702v4.489H154.836z"/>
	<path fill="#FFFFFF" d="M171.833,47.769V26.248h12.605v4.396h-7.503v3.689h4.889v4.366h-4.889v4.673h7.719v4.396H171.833z"/>
	<path fill="#FFFFFF" d="M196.271,48.107c-3.351,0-5.289-1.383-7.072-3.75l3.504-3.167c1.445,1.722,2.613,2.613,3.659,2.613
		c1.076,0,1.845-0.553,1.845-1.721c0-1.199-0.338-1.937-2.767-3.013c-4.273-1.875-5.843-3.505-5.843-6.887
		c0-3.505,2.552-6.272,6.673-6.272c3.319,0,4.98,1.199,6.762,3.413l-3.565,3.197c-1.475-1.752-2-2.306-3.351-2.306
		c-0.984,0-1.538,0.737-1.538,1.537c0,1.137,0.554,1.783,2.738,2.736c4.333,1.906,5.933,3.69,5.933,7.286
		C203.249,45.801,200.266,48.107,196.271,48.107z"/>
	<path fill="#FFFFFF" d="M216.833,30.737v17.032h-5.134V30.737h-4.366v-4.489h13.866v4.489H216.833z"/>
	<path fill="#FFFFFF" d="M232.385,48.107c-4.827,0-7.655-3.474-7.655-11.067c0-7.594,2.89-11.13,7.716-11.13
		c4.829,0,7.688,3.505,7.688,11.068C240.133,44.571,237.243,48.107,232.385,48.107z M232.416,30.336
		c-1.628,0-2.398,1.445-2.398,6.641s0.83,6.702,2.429,6.702c1.6,0,2.398-1.445,2.398-6.64
		C234.844,31.843,234.015,30.336,232.416,30.336z"/>
	<path fill="#FFFFFF" d="M256.052,47.769l-3.166-6.179c-1.2-2.337-2.337-4.674-2.767-5.903c0.123,1.229,0.153,3.965,0.153,5.994
		v6.088h-4.828V26.248h4.49l2.736,4.919c1.229,2.213,2.459,4.857,2.858,6.026c-0.123-1.168-0.184-4.151-0.184-6.119v-4.827h4.826
		v21.521H256.052z"/>
	<path fill="#FFFFFF" d="M286.911,47.769l-0.799-3.997h-4.242l-0.769,3.997h-5.289l5.565-21.521h5.288l5.535,21.521H286.911z
		 M285.129,38.884c-0.493-2.828-0.954-5.165-1.169-7.132c-0.185,1.968-0.615,4.304-1.137,7.163l-0.123,0.677h2.552L285.129,38.884z"
		/>
	<path fill="#FFFFFF" d="M307.689,47.769l-3.166-6.179c-1.199-2.337-2.337-4.674-2.769-5.903c0.123,1.229,0.155,3.965,0.155,5.994
		v6.088h-4.826V26.248h4.488l2.734,4.919c1.232,2.213,2.461,4.857,2.86,6.026c-0.122-1.168-0.185-4.151-0.185-6.119v-4.827h4.827
		v21.521H307.689z"/>
	<path fill="#FFFFFF" d="M324.807,48.107c-4.857,0-7.654-3.627-7.654-11.099c0-7.164,2.552-11.099,7.747-11.099
		c4.52,0,6.088,2.368,7.01,6.425l-4.919,1.414c-0.461-2.336-0.829-3.413-2.12-3.413c-1.814,0-2.399,1.722-2.399,6.672
		c0,5.319,0.77,6.764,2.646,6.764c1.658,0,2.273-0.984,2.273-2.705v-0.892h-2.49v-3.936h7.348v3.383
		C332.248,44.848,329.851,48.107,324.807,48.107z"/>
	<path fill="#FFFFFF" d="M337.624,47.769V26.248h5.164V43.28h6.703v4.489H337.624z"/>
	<path fill="#FFFFFF" d="M354.622,47.769V26.248h12.604v4.396h-7.503v3.689h4.888v4.366h-4.888v4.673h7.718v4.396H354.622z"/>
	<path fill="#FFFFFF" d="M381.793,47.769l-2.521-8.239h-1.384v8.239h-5.04V26.248h7.439c3.873,0,6.672,1.752,6.672,6.548
		c0,2.798-1.077,4.612-2.83,5.657l3.136,9.315H381.793z M379.917,30.336h-2.029v5.258h1.938c1.477,0,2.029-0.861,2.029-2.644
		S381.333,30.336,379.917,30.336z"/>
</g>
<g>
	<path fill="#FFFFFF" d="M148.782,66.577v-8.705h5.099v1.778h-3.034v1.493h1.977v1.766h-1.977v1.89h3.121v1.778H148.782z"/>
	<path fill="#FFFFFF" d="M162.406,66.713c-1.357,0-2.14-0.56-2.86-1.517l1.418-1.281c0.584,0.697,1.056,1.057,1.478,1.057
		c0.436,0,0.749-0.224,0.749-0.696c0-0.485-0.139-0.783-1.121-1.218c-1.728-0.759-2.363-1.418-2.363-2.786
		c0-1.418,1.033-2.537,2.699-2.537c1.344,0,2.015,0.485,2.736,1.38l-1.443,1.293c-0.597-0.709-0.809-0.932-1.355-0.932
		c-0.398,0-0.622,0.298-0.622,0.621c0,0.46,0.224,0.722,1.107,1.107c1.754,0.771,2.399,1.493,2.399,2.948
		C165.228,65.781,164.022,66.713,162.406,66.713z"/>
	<path fill="#FFFFFF" d="M174.462,59.687v6.89h-2.078v-6.89h-1.766v-1.815h5.609v1.815H174.462z"/>
	<path fill="#FFFFFF" d="M185.286,66.577l-0.322-1.617h-1.718l-0.31,1.617h-2.138l2.249-8.705h2.14l2.237,8.705H185.286z
		 M184.566,62.982c-0.199-1.144-0.386-2.089-0.474-2.885c-0.074,0.796-0.25,1.741-0.461,2.898l-0.047,0.273h1.031L184.566,62.982z"
		/>
	<path fill="#FFFFFF" d="M196.198,66.577h-3.059v-8.705h3.109c1.715,0,2.523,0.771,2.523,2.301c0,0.945-0.398,1.442-1.008,1.778
		c0.711,0.323,1.145,0.895,1.145,1.952C198.909,65.594,198.039,66.577,196.198,66.577z M196.049,59.488h-0.921v1.779h0.946
		c0.447,0,0.671-0.298,0.671-0.908C196.746,59.762,196.534,59.488,196.049,59.488z M196.1,62.858h-0.972v2.101h0.995
		c0.485,0,0.747-0.335,0.747-1.02C196.871,63.194,196.608,62.858,196.1,62.858z"/>
	<path fill="#FFFFFF" d="M204.798,66.577v-8.705h2.089v6.889h2.711v1.816H204.798z"/>
	<path fill="#FFFFFF" d="M215.448,66.577v-8.705h2.104v8.705H215.448z"/>
	<path fill="#FFFFFF" d="M226.309,66.713c-1.354,0-2.139-0.56-2.86-1.517l1.417-1.281c0.584,0.697,1.058,1.057,1.481,1.057
		c0.436,0,0.745-0.224,0.745-0.696c0-0.485-0.136-0.783-1.118-1.218c-1.729-0.759-2.362-1.418-2.362-2.786
		c0-1.418,1.031-2.537,2.697-2.537c1.342,0,2.015,0.485,2.735,1.38l-1.442,1.293c-0.597-0.709-0.807-0.932-1.356-0.932
		c-0.397,0-0.62,0.298-0.62,0.621c0,0.46,0.223,0.722,1.106,1.107c1.753,0.771,2.4,1.493,2.4,2.948
		C229.132,65.781,227.926,66.713,226.309,66.713z"/>
	<path fill="#FFFFFF" d="M238.875,66.577v-3.644h-1.753v3.644h-2.103v-8.705h2.103v3.246h1.753v-3.246h2.101v8.705H238.875z"/>
	<path fill="#FFFFFF" d="M247.102,66.577v-8.705h5.099v1.778h-3.035v1.493h1.978v1.766h-1.978v1.89h3.122v1.778H247.102z"/>
	<path fill="#FFFFFF" d="M260.551,66.577h-2.339v-8.705h2.525c2.25,0,3.357,1.318,3.357,4.291
		C264.095,65.296,262.914,66.577,260.551,66.577z M260.662,59.6h-0.372v5.26h0.323c0.972,0,1.356-0.459,1.356-2.661
		C261.969,60.073,261.631,59.6,260.662,59.6z"/>
	<path fill="#FFFFFF" d="M277.897,66.577c0.075-2.749,0.957-3.893,2.599-5.086c0.708-0.522,0.932-0.833,0.932-1.306
		c0-0.41-0.26-0.708-0.633-0.708c-0.522,0-0.87,0.162-1.518,0.969l-1.354-1.119c0.758-1.02,1.528-1.592,2.896-1.592
		c1.668,0,2.574,0.908,2.574,2.275c0,1.008-0.36,1.729-1.528,2.587c-1.317,0.958-1.691,1.542-1.804,2.251h3.37v1.729H277.897z"/>
	<path fill="#FFFFFF" d="M291.906,66.713c-1.891,0-2.998-1.467-2.998-4.477c0-3.009,1.133-4.501,3.021-4.501
		c1.904,0,3.01,1.479,3.01,4.477C294.939,65.221,293.808,66.713,291.906,66.713z M291.917,59.513c-0.622,0-0.92,0.571-0.92,2.699
		c0,2.139,0.311,2.723,0.932,2.723c0.622,0,0.922-0.572,0.922-2.699S292.539,59.513,291.917,59.513z"/>
	<path fill="#FFFFFF" d="M303.564,66.713c-1.89,0-2.997-1.467-2.997-4.477c0-3.009,1.131-4.501,3.022-4.501
		c1.901,0,3.01,1.479,3.01,4.477C306.599,65.221,305.467,66.713,303.564,66.713z M303.577,59.513c-0.622,0-0.921,0.571-0.921,2.699
		c0,2.139,0.312,2.723,0.934,2.723s0.919-0.572,0.919-2.699S304.199,59.513,303.577,59.513z"/>
	<path fill="#FFFFFF" d="M315.221,66.713c-1.889,0-2.997-1.467-2.997-4.477c0-3.009,1.134-4.501,3.022-4.501
		c1.903,0,3.01,1.479,3.01,4.477C318.256,65.221,317.126,66.713,315.221,66.713z M315.234,59.513c-0.622,0-0.919,0.571-0.919,2.699
		c0,2.139,0.31,2.723,0.932,2.723s0.921-0.572,0.921-2.699S315.856,59.513,315.234,59.513z"/>
</g>
<rect x="94.118" y="61.722" fill="#FFFFFF" width="36.789" height="0.808"/>
<rect x="335.868" y="61.722" fill="#FFFFFF" width="36.788" height="0.808"/>
</svg>
