<?xml version="1.0" encoding="utf-8"?>
<!-- Generator: Adobe Illustrator 16.0.0, SVG Export Plug-In . SVG Version: 6.00 Build 0)  -->
<!DOCTYPE svg PUBLIC "-//W3C//DTD SVG 1.1//EN" "http://www.w3.org/Graphics/SVG/1.1/DTD/svg11.dtd">
<svg version="1.1" id="Layer_1" xmlns="http://www.w3.org/2000/svg" xmlns:xlink="http://www.w3.org/1999/xlink" x="0px" y="0px"
	 width="226px" height="57px" viewBox="0 0 226 57" enable-background="new 0 0 226 57" xml:space="preserve">
<g>
	<path fill="#F7B334" d="M86.795,45.506c1.202,0,1.931-0.884,1.93-2.011c0-1.146-0.734-1.934-1.934-1.93l-2.538,0.001l0.006,3.942
		L86.795,45.506z M87.101,51.215c1.146-0.002,2.027-0.885,2.024-2.049c0-1.146-1.089-1.972-2.31-1.97l-2.572,0.003l0.003,4.02
		L87.101,51.215z M82.338,40.161c0-0.188,0.15-0.357,0.356-0.357l4.208-0.006c2.271-0.002,3.907,1.499,3.908,3.47
		c0,1.447-1.069,2.479-1.95,2.988c0.997,0.411,2.35,1.329,2.351,3.059c0.004,2.103-1.723,3.626-4.09,3.628l-4.412,0.005
		c-0.208,0-0.357-0.167-0.357-0.357L82.338,40.161z"/>
	<path fill="#F7B334" d="M98.964,46.168c1.221-0.001,2.291-1.033,2.288-2.329c0-1.222-1.072-2.233-2.293-2.233l-3.343,0.006
		l0.004,4.562L98.964,46.168z M93.644,40.148c0-0.188,0.15-0.358,0.355-0.358l5.108-0.006c2.252-0.002,4.096,1.779,4.098,4.015
		c0.001,1.727-1.143,3.154-2.775,3.814l2.578,4.767c0.132,0.244,0.002,0.546-0.317,0.546l-1.467,0.001
		c-0.148,0-0.26-0.093-0.299-0.169l-2.503-4.974l-2.836,0.003l0.007,4.789c0,0.188-0.167,0.357-0.357,0.357l-1.223,0.002
		c-0.206,0-0.354-0.168-0.354-0.357L93.644,40.148z"/>
	<path fill="#F7B334" d="M105.757,40.132c-0.002-0.187,0.15-0.356,0.355-0.356l7.511-0.007c0.207,0,0.357,0.167,0.357,0.354
		l0.002,1.053c0,0.188-0.148,0.357-0.357,0.357l-5.933,0.007l0.003,3.83l5.016-0.006c0.188-0.001,0.356,0.169,0.356,0.357v1.051
		c0,0.208-0.167,0.356-0.354,0.356l-5.016,0.007l0.005,4.037l5.934-0.007c0.209,0,0.357,0.169,0.357,0.355l0.002,1.034
		c0,0.187-0.15,0.355-0.357,0.357l-7.509,0.009c-0.208,0-0.358-0.17-0.358-0.356L105.757,40.132z"/>
	<path fill="#F7B334" d="M124.284,48.43l-2.315-5.141h-0.093l-2.288,5.146L124.284,48.43z M115.783,52.422l5.75-12.646
		c0.055-0.109,0.224-0.204,0.317-0.204h0.189c0.093,0,0.263,0.094,0.318,0.204l5.742,12.631c0.114,0.243-0.036,0.488-0.319,0.488
		l-1.184,0.003c-0.225,0-0.355-0.112-0.43-0.282l-1.167-2.571l-6.143,0.008c-0.372,0.863-0.768,1.71-1.14,2.574
		c-0.059,0.132-0.208,0.281-0.434,0.281l-1.182,0.002C115.822,52.909,115.67,52.665,115.783,52.422"/>
	<path fill="#F7B334" d="M133.998,51.105c2.759-0.003,4.765-2.034,4.764-4.814c-0.003-2.759-2.018-4.767-4.776-4.761h-2.478
		l0.012,9.577L133.998,51.105z M129.588,40.106c0-0.188,0.151-0.357,0.341-0.357l4.318-0.004c3.623-0.006,6.596,2.939,6.599,6.543
		c0.003,3.645-2.959,6.596-6.585,6.601l-4.318,0.005c-0.187,0-0.34-0.17-0.34-0.357L129.588,40.106z"/>
	<path fill="#F7B334" d="M142.711,50.982c0.169-0.246,0.318-0.526,0.486-0.77c0.169-0.246,0.432-0.322,0.639-0.151
		c0.114,0.094,1.562,1.294,3.006,1.291c1.296-0.001,2.122-0.79,2.122-1.749c-0.003-1.127-0.98-1.84-2.84-2.607
		c-1.916-0.803-3.421-1.798-3.423-3.977c-0.001-1.464,1.123-3.474,4.109-3.478c1.875-0.003,3.286,0.973,3.475,1.103
		c0.15,0.095,0.301,0.357,0.114,0.64c-0.153,0.226-0.318,0.488-0.47,0.713c-0.148,0.246-0.396,0.357-0.655,0.188
		c-0.134-0.074-1.449-0.937-2.538-0.936c-1.577,0.002-2.121,0.998-2.121,1.693c0.004,1.069,0.83,1.726,2.388,2.362
		c2.181,0.881,4.042,1.912,4.042,4.202c0.003,1.953-1.74,3.551-4.183,3.554c-2.291,0.003-3.738-1.197-4.037-1.479
		C142.654,51.433,142.522,51.302,142.711,50.982"/>
	<path fill="#5C3A82" d="M112.37,31.457c-0.022,0.006-0.045,0.017-0.065,0.02c-0.003,0.042-0.004,0.081-0.008,0.121l0.188-0.041
		c-0.019-0.038-0.03-0.094-0.06-0.104C112.408,31.446,112.388,31.45,112.37,31.457"/>
	<path fill="#5C3A82" d="M112.37,31.457c-0.022,0.006-0.045,0.017-0.065,0.02c-0.003,0.042-0.004,0.081-0.008,0.121l0.188-0.041
		c-0.019-0.038-0.03-0.094-0.06-0.104C112.408,31.446,112.388,31.45,112.37,31.457"/>
	<path fill="#D35E13" d="M49.831,10.823c0.482,0.744,1.242,0.99,2.062,0.684c0.653-0.244,1.349-0.344,1.729-1.113
		c0.368-0.869-0.496-1.789-0.774-2.357c-0.274-0.56-0.646-1.004-1.333-1.044c-0.195-0.016-0.394-0.038-0.59-0.043
		c-1.3-0.041-2.476,1.409-1.71,2.689C49.443,10.019,49.592,10.45,49.831,10.823"/>
	<path fill="#D35E13" d="M209.568,21.621c0.448-0.424,1.117-1.187,1.738-0.848c0.384,0.349,0.217,1.123-0.204,1.597
		c-0.838,0.941-1.344,1.451-2.39,2.196c-0.428,0.306-0.81,0.619-1.67,0.775C207.506,23.602,208.537,22.599,209.568,21.621
		 M122.669,22.6c-0.133,0.318-0.334,0.612-0.536,0.893c-0.697,0.973-1.396,1.945-2.113,2.9c-1.464,1.939-3.555,2.614-5.85,2.868
		c-0.146,0.014-0.297-0.019-0.404-0.025c-0.833-0.114-1.158-0.662-0.806-1.411c1.173-2.492,2.817-4.559,5.356-5.81
		c0.808-0.399,1.634-0.727,2.521-0.899c0.244-0.047,0.491-0.107,0.736-0.108C122.547,20.995,123.048,21.715,122.669,22.6
		 M67.288,28.329c-1.314,0.78-4.521,1.58-4.521,0c-0.385-1.365,4.113-5.289,5.331-6.566c0.484-0.511,1.956-1.568,3.519-1.674
		c0.568-0.033,1.342,0.137,1.342,1.801C72.959,23.553,69.974,26.73,67.288,28.329 M69.952,41.719
		c-0.108,1.737-0.267,3.472-0.424,5.205c-0.296,3.242-2.263,7.793-4.833,7.122c-0.567-0.252-0.7-0.658-0.791-1.12
		c-0.196-1.003-0.035-1.994,0.075-2.978c0.156-1.392,0.7-2.69,1.196-3.98c1.274-3.312,4.178-9.49,4.609-9.342
		C70.148,36.922,69.974,41.344,69.952,41.719 M11.333,37.163c-1.267,0-2.832-0.326-3.244-0.844
		c-0.818-0.634-0.478-2.729,3.829-3.522c8.622-1.589,14.724-0.861,14.847-0.851C25.614,33.936,17.173,37.286,11.333,37.163
		 M220.85,26.563c-0.433,0.059-0.873,0.215-1.256,0.42c-1.186,0.636-2.462,1.518-3.673,2.124c-0.953,0.476-1.63,0.697-2.382,0.952
		c-0.987,0.336-3.597,0.739-4.459,0.295c-0.205-0.085-0.319-0.2-0.643-0.445c0.81-0.832,1.917-1.371,2.883-2.388
		c3.689-3.848,3.729-5.927,3.743-7.502c0.003-0.657-0.261-1.141-0.72-1.572c-1.205-1.133-3.455-1.451-4.846-0.534
		c-0.905,0.597-1.771,1.31-2.484,2.121c-1.565,1.772-2.646,3.83-3.284,6.128c-0.286,1.02-0.748,2.01-1.714,2.646
		c-1.493,0.99-2.069,1.305-3.825,1.68c-1.331,0.284-2.885,0.072-3.571-0.365c-1.009-0.688,0.719-3.611,1.461-4.979
		c0.55-1.013,0.963-2.073,1.174-3.208c0.159-0.855-0.012-1.208-0.761-1.565c-0.762-0.36-1.543-0.678-2.295-1.057
		c-0.299-0.151-0.582-0.381-0.801-0.636c-0.285-0.334-0.574-0.705-0.733-1.11c-0.312-0.8-0.888-1.161-1.698-1.241
		c-0.198-0.019-0.394-0.064-0.59-0.103c-1.132-0.223-1.946,0.29-2.541,1.178c-0.211,0.315-0.257,0.741-0.379,1.115
		c-0.456,1.414,0.155,2.586-0.993,3.687c-0.679,0.648-2.146,3.448-6.154,6.265c-2.046,1.534-2.973,1.819-4.538,2.308
		c-0.663,0.206-1.688,0.49-2.968-0.005c-1.49-0.577-0.801-3.585-0.764-3.822c0.114-0.734,0.15-1.517,0.443-2.183
		c0.359-0.818,1.127-3.242-0.272-4.282c-0.392-0.642-2.146-1.187-3.408,0.574c-1.146,1.463-1.448,3.007-3.704,5.758
		c-0.833,1.026-2.922,2.148-4.073,2.76c-1.467,0.778-4.134,0.923-4.347-0.112c-0.163-0.84,0.088-1.644,0.389-2.438
		c0.606-1.598,1.558-2.997,2.538-4.38c0.489-0.69,0.932-1.414,1.36-2.142c0.304-0.517,0.28-1.115-0.072-1.558
		c-0.39-0.492-1.392-1.156-2.827-0.804c-1.073,0.323-2.244,1.838-2.905,3.108c-0.323,0.615-0.752,1.173-1.135,1.755
		c-0.328,0.499-1.775,2.731-2.365,3.184c-0.746,0.579-4.756,4.366-7.632,3.291c-0.979-0.443-1.494-0.797-1.703-1.724
		c-0.168-0.746-0.184-1.435,0.13-2.175c0.997-2.341,2.386-4.473,3.549-6.726c0.825-1.589,1.83-3.082,2.717-4.639
		c0.446-0.785,1.04-1.157,1.948-1.048c2.88,0.341,5.771,0.244,8.66,0.213c0.693-0.005,1.387-0.11,2.082-0.156
		c1.14-0.073,2.279-0.15,3.422-0.195c0.695-0.026,1.395-0.031,2.088,0.021c0.736,0.056,1.249-0.193,1.558-0.876
		c0.103-0.223,0.275-0.417,0.389-0.637c0.337-0.648,0.077-1.353-0.631-1.535c-0.47-0.123-0.979-0.123-1.471-0.123
		c-1.544-0.001-3.088,0.024-4.633,0.035c-2.237,0.014-4.479,0.026-6.719,0.034c-1.047,0.003-3.792,0.278-4.008-0.208
		c-0.095-0.293,0.022-0.966,0.092-1.396c0.112-0.7,0.294-2.41-1.996-2.604c-1.073-0.069-1.405,0.508-1.888,1.151
		c-0.682,0.912-1.517,2.016-2.225,2.918c-0.763,0.089-1.332,0.077-2.092,0.045c-1.329-0.056-6.832,0.204-7.923,0.233
		c-0.844,0.02-0.96,1.494-0.779,2.374c0.09,0.416,0.326,0.798,0.743,0.857c0.931,0.128,6.163-0.08,7.842-0.166
		c0.406-0.02,0.606,0.342,0.413,0.74c-0.345,0.718-4.019,7.219-5.21,8.673c-2.833,3.452-6.539,5.456-10.925,6.206
		c-0.631,0.107-1.286,0.159-1.924,0.125c-1.092-0.06-1.627-1.137-0.952-2.044c0.734-0.994,1.32-2.1,1.997-3.139
		c0.652-1.006,0.782-2.031,0.187-3.099c-0.169-0.299-0.356-0.606-0.606-0.834c-1.249-1.138-2.692-1.825-4.415-1.915
		c-1.369-0.072-2.679,0.063-3.92,0.704c-3.024,1.733-5.397,4.058-7.14,5.901c-0.441,0.45-1.401,1.409-3.212,2.751
		c-2.367,1.587-5.339,2.338-6.521,1.7c-1.283-0.694-0.612-3.546-0.223-5.18c0.245-1.035-0.048-1.586-0.769-2.159
		c-1.19-0.947-2.271-0.396-3.313,0.233c-1.45,0.875-2.866,1.815-4.296,2.728c-0.253,0.149-0.3-0.047-0.22-0.297
		c0.365-1.337,0.889-2.457,1.064-3.83c0.069-0.558,0.114-1.498-0.699-1.791c-2.606-1.025-7.259,3.252-9.372,5.097
		c-1.971,1.722-9.621,6.926-10.579,7.483c-0.188-0.268,0.534-1.859,0.764-2.296c1.449-1.997,2.768-4.63,3.072-6.561
		c0.251-1.421,0.455-2.851,0.156-4.3c-0.173-0.846,0.109-1.086,0.394-1.912c0.131-0.371,0.181-0.777,0.214-1.173
		c0.048-0.543-0.16-0.878-0.649-1.044c-0.871-0.294-1.72-0.395-2.601,0.075c-0.981,0.525-2.432,1.257-3.217,2.041
		c-1.404,1.4-4.614,3.976-6.068,5.52c-0.934,0.989-3.029,3.22-4.136,4.198c-0.961,0.851-2.13,1.45-3.163,2.225
		c-0.513,0.386-1.089,0.714-1.683,0.96c-1.281,0.535-2.589,1-3.887,1.495c-0.372,0.143-0.737,0.309-1.117,0.424
		c-0.864,0.267-1.737,0.42-2.639,0.147c-0.915-0.275-1.195-0.735-0.976-1.681c0.676-3.812,3.514-9.848,3.019-10.817
		c-0.454-0.947-1.439-1.3-2.315-0.233c-0.217,0.267-2.983,5.84-3.995,7.006c-1.167,1.322-2.638,3.792-12.563,5.5
		c0.038-0.284,0.384-0.906,0.485-1.574c0.132-0.869,0.271-1.788,0.302-2.07c0.058-0.499,0.462-4.942-2.429-7.233
		c-1.406-0.943-2.67-1.306-3.788-1.625l-0.215-0.063c-1.531-0.442-2.615-0.719-3.872-1.039c-0.967-0.247-2.034-0.52-3.483-0.915
		c-0.207-0.055-0.428-0.112-0.658-0.17c-1.623-0.418-3.646-0.939-4.495-2.214c-0.5-0.616-0.71-1.394-0.585-2.183
		c0.167-1.077,0.926-2.105,2.122-2.888c3.726-2.589,9.165-4.969,16.654-4.944c2.345,0.271,3.7,0.32,5.182,0.863
		c0.305,0.111,0.616,0.166,0.917,0.218c0.12,0.023,0.241,0.043,0.366,0.069c0.185,0.037,0.374,0.057,0.554,0.057
		c1.323,0,2.268-1.026,2.39-2.008c0.036-0.909-0.508-1.474-1.614-1.681c-0.179-0.035-0.356-0.064-0.535-0.095
		c-0.496-0.083-0.964-0.164-1.411-0.31c-1.958-0.643-3.949-0.75-5.986-0.81c-0.46-0.013-0.9-0.022-1.333-0.022
		c-1.51,0-2.892,0.104-4.614,0.35c-1.479,0.212-2.717,0.533-3.945,0.83c-2.899,0.701-6.286,2.553-8.103,3.886
		C12.114,5.884,9.877,7.75,9.084,9.847c-0.261,0.884-0.958,3.232,0.502,5.54c1.101,1.987,2.945,2.809,3.968,3.248
		c1.206,0.52,3.11,1.061,5.899,2.006c2.012,0.682,4.272,1.418,5.243,1.813c5.526,2.55,3.57,7.248,3.077,7.395
		c-0.077,0.089-0.31,0.11-0.776-0.017c-1.773-0.386-7.896-0.98-12.602-0.98c-1.937,0-3.979,0.062-5.931,0.483
		c-1.212,0.293-5.298,1.489-5.679,5.821c0.014,0.731,0.21,1.13,0.403,1.51c0.432,0.868,2.508,2.693,5.338,2.989
		c0.947,0.105,1.947,0.16,2.973,0.16c4.048,0,10.05-0.822,15.636-4.732c0.349-0.246,0.69-0.488,1.011-0.718
		c0.819-0.584,2.361-1.688,2.361-1.688c7.062,0.021,13.034-4.068,13.217-4.093c0.179,0.897-0.286,1.746-0.082,2.551
		c0.354,1.393,1.428,2.151,2.653,2.607c0.668,0.248,1.475,0.188,2.214,0.151c2.965-0.436,7.752-2.802,8.804-3.464
		c0.377-0.236,0.967-0.787,1.16-0.414c0.344,0.917,2.756,5.647,9.541,1.326c0.84-0.411,2.438-1.882,1.064,0.996
		c-0.446,0.734-1.677,1.852-2.405,2.736c-1.434,1.742-4.159,6.227-5.081,8.269c-2.223,5.037-1.311,7.788-1.159,8.918
		c0.091,0.665,0.455,1.57,0.771,2.194c0.315,0.622,1.466,2.067,2.955,2.378c1.759,0.588,3.967-0.523,4.514-1.213
		c3.959-2.481,5.06-13.873,4.623-17.608c-0.157-1.341-0.294-2.585,0.198-3.899c0.589-0.786,1.669-1.632,2.896-2.444
		c0,0,2.166-1.229,3.219-1.933c1.149-0.642,2.666-1.803,2.666-1.803c1.995-1.36,3.982-2.731,5.978-4.099
		c-0.243,1.21-0.562,2.489-0.745,3.788c-0.148,1.061-0.281,2.163-0.125,3.206c0.364,2.013,2.033,1.615,2.529,0.697
		c1.538-2.323,3.345-4.016,5.388-5.731c0.594-0.499,1.529-1.161,1.487-0.805c-0.129,1.066-0.261,1.965-0.34,2.872
		c-0.212,2.429,1.245,4.079,3.649,3.958c3.032,0.152,6.232-1.049,7.836-1.578c1.098,3.734,4.974,3.907,6.677,3.357
		c1.314-0.396,2.239-0.895,3.334-1.675c0.362-0.259,0.704-0.554,1.03-0.859c0.348-0.325,0.794-0.783,1.169-1.171
		c0.17,0.276,0.221,0.462,0.318,0.625c0.602,0.986,1.027,2.348,4.184,2.578c0.739-0.017,1.497-0.081,2.212-0.263
		c1.303-0.327,2.598-0.702,3.863-1.15c1.637-0.582,5.883-3.07,6.882-2.631c0.674,0.203,0.738,0.926,0.872,1.466
		c0.474,1.937,1.87,2.562,3.7,2.804c2.053,0.324,4.077-0.305,5.442-1.103c1.415-0.823,3.424-2.37,4.262-2.974
		c-0.011,0.508-0.095,1.058-0.018,1.583c0.282,1.872,2.115,3.438,4.053,3.531c0.249,0.013,2.17,0.407,4.928-0.795
		c2.97-0.884,5.187-3.51,5.711-2.897c0.514,0.862,1.657,3.287,5.714,3.212c0.802-0.002,3.542-0.364,4.478-0.8
		c2.896-1.035,5.662-3.389,5.889-3.585c0.708-0.614,1.746-1.318,2.226-1.747c1.008-0.888,2.033-1.753,3.085-2.589
		c0.661-0.527,1.671-1.601,2.38-2.062c0.458-0.298,1.41,0.14,1.975,0.704c0.422,0.564-0.852,1.88-1.269,2.829
		c-0.494,1.119-0.688,2.346-0.637,3.8c0.059,1.609,1.146,3.144,2.734,3.547c0.673,0.172,1.37,0.265,2.062,0.332
		c2.574,0.242,4.47-0.749,6.64-2.183c0.446-0.295,0.553-0.295,1.212-0.665c0.406-0.062,0.517,0.277,0.611,0.378
		c1.034,1.128,3.436,2.397,5.776,2.376c2.528-0.101,4.884-0.819,7.152-1.879c0.719-0.332,4.912-3,5.36-4.447
		C222.172,27.136,221.65,26.453,220.85,26.563"/>
</g>
</svg>
