<?xml version="1.0" encoding="utf-8"?>
<!-- Generator: Adobe Illustrator 16.0.0, SVG Export Plug-In . SVG Version: 6.00 Build 0)  -->
<!DOCTYPE svg PUBLIC "-//W3C//DTD SVG 1.0//EN" "http://www.w3.org/TR/2001/REC-SVG-20010904/DTD/svg10.dtd">
<svg version="1.0" id="Layer_1" xmlns="http://www.w3.org/2000/svg" xmlns:xlink="http://www.w3.org/1999/xlink" x="0px" y="0px"
	 width="25px" height="25px" viewBox="0 0 25 25" enable-background="new 0 0 25 25" xml:space="preserve">
<g id="nHM1aP_1_">
	<g>
		<path fill-rule="evenodd" clip-rule="evenodd" fill="#FFFFFF" d="M17.271,5.295c0.131,0.027,0.206,0.021,0.244,0.054
			c0.598,0.543,1.208,1.075,1.764,1.659c0.072,0.076-0.084,0.477-0.231,0.64c-1.511,1.674-3.041,3.331-4.567,4.99
			c-2.611,2.84-5.223,5.679-7.834,8.518c-0.492,0.535-0.598,0.539-1.151,0.036c-0.351-0.32-0.682-0.664-1.052-0.961
			c-0.448-0.358-0.425-0.656-0.041-1.071c2.69-2.9,5.362-5.819,8.04-8.731c1.459-1.587,2.918-3.175,4.383-4.757
			C16.965,5.519,17.143,5.401,17.271,5.295z"/>
		<path fill-rule="evenodd" clip-rule="evenodd" fill="#FFFFFF" d="M3.551,19.356c-0.29-0.267-0.617-0.461-0.766-0.747
			c-0.08-0.153,0.084-0.523,0.244-0.698c3.427-3.752,6.87-7.491,10.309-11.231c0.723-0.786,1.457-1.562,2.163-2.363
			c0.365-0.414,0.648-0.293,0.994,0.021c0.348,0.317,0.474,0.582,0.101,0.986C12.411,9.857,8.237,14.4,4.057,18.938
			C3.93,19.076,3.767,19.18,3.551,19.356z"/>
		<path fill-rule="evenodd" clip-rule="evenodd" fill="#FFFFFF" d="M21.746,4.578c-0.112,0.166-0.188,0.304-0.289,0.418
			c-0.369,0.412-0.753,0.81-1.118,1.225c-0.271,0.309-0.531,0.363-0.853,0.063c-0.908-0.849-1.823-1.69-2.743-2.528
			c-0.3-0.273-0.289-0.525-0.02-0.809c0.394-0.416,0.782-0.836,1.161-1.265C18.17,1.36,18.43,1.372,18.738,1.66
			c0.894,0.836,1.802,1.656,2.697,2.49C21.558,4.265,21.637,4.424,21.746,4.578z"/>
		<path fill-rule="evenodd" clip-rule="evenodd" fill="#FFFFFF" d="M2.146,18.871c1.246,1.144,2.347,2.153,3.556,3.264
			c-1.021,0.197-1.917,0.371-2.812,0.545c-0.155,0.029-0.308,0.07-0.464,0.089c-0.38,0.046-0.653-0.116-0.623-0.509
			C1.889,21.185,2.018,20.111,2.146,18.871z"/>
	</g>
</g>
</svg>
